SELECT nid FROM node WHERE nid > 100Deleting node: 101
Deleting node: 102
Deleting node: 103
Deleting node: 104
Deleting node: 105
Deleting node: 106
Deleting node: 107
Deleting node: 108
Deleting node: 109
Deleting node: 110
Deleting node: 111
Deleting node: 112
Deleting node: 113
Deleting node: 114
Deleting node: 115
Deleting node: 116
Deleting node: 117
Deleting node: 118
Deleting node: 119
Deleting node: 120
Deleting node: 121
Deleting node: 122
Deleting node: 123
Deleting node: 124
Deleting node: 125
Deleting node: 126
Deleting node: 127
Deleting node: 128
Deleting node: 129
Deleting node: 130
Deleting node: 131
Deleting node: 132
Deleting node: 133
Deleting node: 134
Deleting node: 135
Deleting node: 136
Deleting node: 137
Deleting node: 138
Deleting node: 139
Deleting node: 140
Deleting node: 141
Deleting node: 142
Deleting node: 143
Deleting node: 144
Deleting node: 145
Deleting node: 146
Deleting node: 147
Deleting node: 148
Deleting node: 149
Deleting node: 150
Deleting node: 151
Deleting node: 152
Deleting node: 153
Deleting node: 154
Deleting node: 155
Deleting node: 156
Deleting node: 157
Deleting node: 158
Deleting node: 159
Deleting node: 160
Deleting node: 161
Deleting node: 162
Deleting node: 163
Deleting node: 164
Deleting node: 165
Deleting node: 166
Deleting node: 167
Deleting node: 169
Deleting node: 170
Deleting node: 171
Deleting node: 172
Deleting node: 173
Deleting node: 174
Deleting node: 175
Deleting node: 176
Deleting node: 177
Deleting node: 178
Deleting node: 179
Deleting node: 180
Deleting node: 181
Deleting node: 182
Deleting node: 183
Deleting node: 184
Deleting node: 185
Deleting node: 186
Deleting node: 187
Deleting node: 188
Deleting node: 189
Deleting node: 190
Deleting node: 191
Deleting node: 192
Deleting node: 193
Deleting node: 194
Deleting node: 195
Deleting node: 196
Deleting node: 197
Deleting node: 198
Deleting node: 199
Deleting node: 200
Deleting node: 201
Deleting node: 202
Deleting node: 203
Deleting node: 204
Deleting node: 205
Deleting node: 206
Deleting node: 208
Deleting node: 209
Deleting node: 210
Deleting node: 211
Deleting node: 212
Deleting node: 213
Deleting node: 214
Deleting node: 215
Deleting node: 217
Deleting node: 218
Deleting node: 219
Deleting node: 220
Deleting node: 221
Deleting node: 222
Deleting node: 223
Deleting node: 224
Deleting node: 225
Deleting node: 226
Deleting node: 227
Deleting node: 228
Deleting node: 229
Deleting node: 230
Deleting node: 231
Deleting node: 232
Deleting node: 233
Deleting node: 234
Deleting node: 235
Deleting node: 236
Deleting node: 237
Deleting node: 238
Deleting node: 239
Deleting node: 240
Deleting node: 241
Deleting node: 242
Deleting node: 243
Deleting node: 244
Deleting node: 245
Deleting node: 246
Deleting node: 247
Deleting node: 248
Deleting node: 249
Deleting node: 250
Deleting node: 251
Deleting node: 252
Deleting node: 253
Deleting node: 254
Deleting node: 255
Deleting node: 256
Deleting node: 257
Deleting node: 258
Deleting node: 259
Deleting node: 260
Deleting node: 261
Deleting node: 262
Deleting node: 263
Deleting node: 264
Deleting node: 265
Deleting node: 266
Deleting node: 267
Deleting node: 268
Deleting node: 269
Deleting node: 270
Deleting node: 271
Deleting node: 272
Deleting node: 273
Deleting node: 274
Deleting node: 275
Deleting node: 276
Deleting node: 277
Deleting node: 278
Deleting node: 279
Deleting node: 280
Deleting node: 281
Deleting node: 282
Deleting node: 283
Deleting node: 284
Deleting node: 285
Deleting node: 286
Deleting node: 287
Deleting node: 288
Deleting node: 289
Deleting node: 290
Deleting node: 291
Deleting node: 292
Deleting node: 293
Deleting node: 294
Deleting node: 295
Deleting node: 296
Deleting node: 297
Deleting node: 298
Deleting node: 299
Deleting node: 300
Deleting node: 301
Deleting node: 302
Deleting node: 303
Deleting node: 304
Deleting node: 305
Deleting node: 306
Deleting node: 307
Deleting node: 308
Deleting node: 309
Deleting node: 310
Deleting node: 311
Deleting node: 312
Deleting node: 313
Deleting node: 314
Deleting node: 315
Deleting node: 316
Deleting node: 317
Deleting node: 318
Deleting node: 319
Deleting node: 320
Deleting node: 321
Deleting node: 322
Deleting node: 323
Deleting node: 324
Deleting node: 325
Deleting node: 326
Deleting node: 327
Deleting node: 328
Deleting node: 329
Deleting node: 330
Deleting node: 331
Deleting node: 332
Deleting node: 333
Deleting node: 334
Deleting node: 335
Deleting node: 336
Deleting node: 337
Deleting node: 338
Deleting node: 339
Deleting node: 340
Deleting node: 341
Deleting node: 342
Deleting node: 343
Deleting node: 344
Deleting node: 345
Deleting node: 346
Deleting node: 347
Deleting node: 348
Deleting node: 349
Deleting node: 350
Deleting node: 351
Deleting node: 352
Deleting node: 353
Deleting node: 354
Deleting node: 355
Deleting node: 356
Deleting node: 357
Deleting node: 358
Deleting node: 359
Deleting node: 360
Deleting node: 361
Deleting node: 362
Deleting node: 363
Deleting node: 364
Deleting node: 365
Deleting node: 366
Deleting node: 367
Deleting node: 368
Deleting node: 369
Deleting node: 370
Deleting node: 371
Deleting node: 372
Deleting node: 373
Deleting node: 374
Deleting node: 375
Deleting node: 376
Deleting node: 377
Deleting node: 378
Deleting node: 379
Deleting node: 380
Deleting node: 381
Deleting node: 382
Deleting node: 383
Deleting node: 384
Deleting node: 385
Deleting node: 386
Deleting node: 387
Deleting node: 388
Deleting node: 389
Deleting node: 390
Deleting node: 391
Deleting node: 392
Deleting node: 393
Deleting node: 394
Deleting node: 395
Deleting node: 396
Deleting node: 397
Deleting node: 398
Deleting node: 399
Deleting node: 400
Deleting node: 401
Deleting node: 402
Deleting node: 403
Deleting node: 404
Deleting node: 405
Deleting node: 406
Deleting node: 407
Deleting node: 408
Deleting node: 409
Deleting node: 410
Deleting node: 411
Deleting node: 412
Deleting node: 413
Deleting node: 414
Deleting node: 415
Deleting node: 416
Deleting node: 417
Deleting node: 418
Deleting node: 419
Deleting node: 420
Deleting node: 421
Deleting node: 422
Deleting node: 423
Deleting node: 424
Deleting node: 425
Deleting node: 426
Deleting node: 427
Deleting node: 428
Deleting node: 429
Deleting node: 430
Deleting node: 431
Deleting node: 432
Deleting node: 433
Deleting node: 434
Deleting node: 435
Deleting node: 436
Deleting node: 437
Deleting node: 438
Deleting node: 439
Deleting node: 440
Deleting node: 441
Deleting node: 442
Deleting node: 443
Deleting node: 444
Deleting node: 445
Deleting node: 446
Deleting node: 447
Deleting node: 448
Deleting node: 449
Deleting node: 450
Deleting node: 451
Deleting node: 452
Deleting node: 453
Deleting node: 454
Deleting node: 455
Deleting node: 456
Deleting node: 457
Deleting node: 458
Deleting node: 459
Deleting node: 460
Deleting node: 461
Deleting node: 462
Deleting node: 463
Deleting node: 464
Deleting node: 465
Deleting node: 466
Deleting node: 467
Deleting node: 468
Deleting node: 469
Deleting node: 470
Deleting node: 471
Deleting node: 472
Deleting node: 473
Deleting node: 474
Deleting node: 475
Deleting node: 476
Deleting node: 477
Deleting node: 478
Deleting node: 479
Deleting node: 480
Deleting node: 481
Deleting node: 482
Deleting node: 483
Deleting node: 484
Deleting node: 485
Deleting node: 486
Deleting node: 487
Deleting node: 488
Deleting node: 489
Deleting node: 490
Deleting node: 491
Deleting node: 492
Deleting node: 493
Deleting node: 494
Deleting node: 495
Deleting node: 496
Deleting node: 497
Deleting node: 498
Deleting node: 499
Deleting node: 500
Deleting node: 501
Deleting node: 502
Deleting node: 503
Deleting node: 504
Deleting node: 505
Deleting node: 506
Deleting node: 507
Deleting node: 508
Deleting node: 509
Deleting node: 510
Deleting node: 511
Deleting node: 512
Deleting node: 513
Deleting node: 514
Deleting node: 515
Deleting node: 516
Deleting node: 517
Deleting node: 518
Deleting node: 519
Deleting node: 520
Deleting node: 521
Deleting node: 522
Deleting node: 523
Deleting node: 524
Deleting node: 525
Deleting node: 526
Deleting node: 527
Deleting node: 528
Deleting node: 529
Deleting node: 530
Deleting node: 531
Deleting node: 532
Deleting node: 533
Deleting node: 535
Deleting node: 536
Deleting node: 539
Deleting node: 540
Deleting node: 543
Deleting node: 544
Deleting node: 547
Deleting node: 548
Deleting node: 549
Deleting node: 550
Deleting node: 551
Deleting node: 552
Deleting node: 553
Deleting node: 554
Deleting node: 555
Deleting node: 556
Deleting node: 557
Deleting node: 558
Deleting node: 559
Deleting node: 560
Deleting node: 561
Deleting node: 562
Deleting node: 563
Deleting node: 564
Deleting node: 565
Deleting node: 566
Deleting node: 567
Deleting node: 568
Deleting node: 569
Deleting node: 570
Deleting node: 571
Deleting node: 572
Deleting node: 573
Deleting node: 574
Deleting node: 575
Deleting node: 576
Deleting node: 577
Deleting node: 578
Deleting node: 579
Deleting node: 580
Deleting node: 581
Deleting node: 582
Deleting node: 583
Deleting node: 584
Deleting node: 585
Deleting node: 586
Deleting node: 587
Deleting node: 588
Deleting node: 589
Deleting node: 590
Deleting node: 591
Deleting node: 592
Deleting node: 593
Deleting node: 594
Deleting node: 595
Deleting node: 596
Deleting node: 597
Deleting node: 598
Deleting node: 599
Deleting node: 600
Deleting node: 601
Deleting node: 602
Deleting node: 603
Deleting node: 604
Deleting node: 605
Deleting node: 606
Deleting node: 607
Deleting node: 608
Deleting node: 609
Deleting node: 610
Deleting node: 611
Deleting node: 612
Deleting node: 613
Deleting node: 614
Deleting node: 615
Deleting node: 616
Deleting node: 617
Deleting node: 618
Deleting node: 619
Deleting node: 620
Deleting node: 621
Deleting node: 622
Deleting node: 623
Deleting node: 624
Deleting node: 625
Deleting node: 626
Deleting node: 627
Deleting node: 628
Deleting node: 629
Deleting node: 630
Deleting node: 631
Deleting node: 632
Deleting node: 633
Deleting node: 634
Deleting node: 635
Deleting node: 636
Deleting node: 637
Deleting node: 638
Deleting node: 639
Deleting node: 640
Deleting node: 641
Deleting node: 642
Deleting node: 643
Deleting node: 644
Deleting node: 645
Deleting node: 646
Deleting node: 647
Deleting node: 648
Deleting node: 649
Deleting node: 650
Deleting node: 651
Deleting node: 652
Deleting node: 653
Deleting node: 654
Deleting node: 655
Deleting node: 656
Deleting node: 657
Deleting node: 658
Deleting node: 659
Deleting node: 660
Deleting node: 661
Deleting node: 662
Deleting node: 663
Deleting node: 664
Deleting node: 665
Deleting node: 666
Deleting node: 667
Deleting node: 668
Deleting node: 669
Deleting node: 670
Deleting node: 671
Deleting node: 672
Deleting node: 673
Deleting node: 674
Deleting node: 675
Deleting node: 676
Deleting node: 677
Deleting node: 678
Deleting node: 679
Deleting node: 680
Deleting node: 681
Deleting node: 682
Deleting node: 683
Deleting node: 684
Deleting node: 685
Deleting node: 686
Deleting node: 687
Deleting node: 688
Deleting node: 689
Deleting node: 690
Deleting node: 691
Deleting node: 692
Deleting node: 693
Deleting node: 694
Deleting node: 695
Deleting node: 696
Deleting node: 697
Deleting node: 698
Deleting node: 699
Deleting node: 700
Deleting node: 701
Deleting node: 702
Deleting node: 703
Deleting node: 704
Deleting node: 705
Deleting node: 706
Deleting node: 707
Deleting node: 708
Deleting node: 709
Deleting node: 710
Deleting node: 711
Deleting node: 712
Deleting node: 713
Deleting node: 714
Deleting node: 715
Deleting node: 716
Deleting node: 717
Deleting node: 718
Deleting node: 719
Deleting node: 720
Deleting node: 721
Deleting node: 722
Deleting node: 723
Deleting node: 724
Deleting node: 725
Deleting node: 726
Deleting node: 727
Deleting node: 728
Deleting node: 729
Deleting node: 730
Deleting node: 731
Deleting node: 732
Deleting node: 733
Deleting node: 734
Deleting node: 735
Deleting node: 736
Deleting node: 737
Deleting node: 738
Deleting node: 739
Deleting node: 740
Deleting node: 741
Deleting node: 742
Deleting node: 743
Deleting node: 744
Deleting node: 745
Deleting node: 746
Deleting node: 747
Deleting node: 748
Deleting node: 749
Deleting node: 750
Deleting node: 751
Deleting node: 752
Deleting node: 753
Deleting node: 754
Deleting node: 755
Deleting node: 756
Deleting node: 757
Deleting node: 758
Deleting node: 759
Deleting node: 760
Deleting node: 761
Deleting node: 762
Deleting node: 763
Deleting node: 764
Deleting node: 765
Deleting node: 766
Deleting node: 767
Deleting node: 768
Deleting node: 769
Deleting node: 770
Deleting node: 771
Deleting node: 772
Deleting node: 773
Deleting node: 774
Deleting node: 775
Deleting node: 776
Deleting node: 777
Deleting node: 778
Deleting node: 779
Deleting node: 780
Deleting node: 781
Deleting node: 782
Deleting node: 783
Deleting node: 784
Deleting node: 785
Deleting node: 786
Deleting node: 787
Deleting node: 788
Deleting node: 789
Deleting node: 790
Deleting node: 791
Deleting node: 792
Deleting node: 793
Deleting node: 794
Deleting node: 795
Deleting node: 796
Deleting node: 797
Deleting node: 798
Deleting node: 799
Deleting node: 800
Deleting node: 801
Deleting node: 802
Deleting node: 803
Deleting node: 804
Deleting node: 805
Deleting node: 806
Deleting node: 807
Deleting node: 808
Deleting node: 809
Deleting node: 810
Deleting node: 811
Deleting node: 812
Deleting node: 813
Deleting node: 814
Deleting node: 815
Deleting node: 816
Deleting node: 817
Deleting node: 818
Deleting node: 819
Deleting node: 820
Deleting node: 821
Deleting node: 822
Deleting node: 823
Deleting node: 824
Deleting node: 825
Deleting node: 826
Deleting node: 827
Deleting node: 828
Deleting node: 829
Deleting node: 830
Deleting node: 831
Deleting node: 832
Deleting node: 833
Deleting node: 834
Deleting node: 835
Deleting node: 836
Deleting node: 837
Deleting node: 838
Deleting node: 839
Deleting node: 840
Deleting node: 841
Deleting node: 842
Deleting node: 843
Deleting node: 844
Deleting node: 845
Deleting node: 846
Deleting node: 847
Deleting node: 848
Deleting node: 849
Deleting node: 850
Deleting node: 851
Deleting node: 852
Deleting node: 854
Deleting node: 855
Deleting node: 856
Deleting node: 857
Deleting node: 858
Deleting node: 859
Deleting node: 860
Deleting node: 861
Deleting node: 862
Deleting node: 863
Deleting node: 864
Deleting node: 865
Deleting node: 868
Deleting node: 869
Deleting node: 870
Deleting node: 871
Deleting node: 872
Deleting node: 873
Deleting node: 874
Deleting node: 875
Deleting node: 876
Deleting node: 877
Deleting node: 878
Deleting node: 879
Deleting node: 880
Deleting node: 881
Deleting node: 882
Deleting node: 883
Deleting node: 884
Deleting node: 885
Deleting node: 886
Deleting node: 888
Deleting node: 889
Deleting node: 890
Deleting node: 891
Deleting node: 892
Deleting node: 894
Deleting node: 895
Deleting node: 896
Deleting node: 900
Deleting node: 902
Deleting node: 903
Deleting node: 905
Deleting node: 907
Deleting node: 910
Deleting node: 912
Deleting node: 917
Deleting node: 918
Deleting node: 919
Deleting node: 922
Deleting node: 924
Deleting node: 930
Deleting node: 931
Deleting node: 932
Deleting node: 933
Deleting node: 934
Deleting node: 935
Deleting node: 936
Deleting node: 938
Deleting node: 939
Deleting node: 940
Deleting node: 941
Deleting node: 942
Deleting node: 943
Deleting node: 944
Deleting node: 945
Deleting node: 946
Deleting node: 947
Deleting node: 948
Deleting node: 949
Deleting node: 950
Deleting node: 951
Deleting node: 952
Deleting node: 953
Deleting node: 954
Deleting node: 955
Deleting node: 956
Deleting node: 957
Deleting node: 958
Deleting node: 959
Deleting node: 960
Deleting node: 961
Deleting node: 962
Deleting node: 963
Deleting node: 964
Deleting node: 965
Deleting node: 966
Deleting node: 967
Deleting node: 968
Deleting node: 969
Deleting node: 970
Deleting node: 971
Deleting node: 972
Deleting node: 977
Deleting node: 988
Deleting node: 989
Deleting node: 996
Deleting node: 997
Deleting node: 998
Deleting node: 999
Deleting node: 1000
Deleting node: 1001
Deleting node: 1002
Deleting node: 1003
Deleting node: 1004
Deleting node: 1005
Deleting node: 1006
Deleting node: 1007
Deleting node: 1008
Deleting node: 1009
Deleting node: 1010
Deleting node: 1011
Deleting node: 1012
Deleting node: 1013
Deleting node: 1014
Deleting node: 1015
Deleting node: 1016
Deleting node: 1017
Deleting node: 1018
Deleting node: 1019
Deleting node: 1020
Deleting node: 1021
Deleting node: 1022
Deleting node: 1023
Deleting node: 1024
Deleting node: 1025
Deleting node: 1026
Deleting node: 1027
Deleting node: 1028
Deleting node: 1029
Deleting node: 1030
Deleting node: 1032
Deleting node: 1033
Deleting node: 1034
Deleting node: 1035
Deleting node: 1036
Deleting node: 1037
Deleting node: 1038
Deleting node: 1039
Deleting node: 1040
Deleting node: 1041
Deleting node: 1042
Deleting node: 1043
Deleting node: 1044
Deleting node: 1045
Deleting node: 1046
Deleting node: 1047
Deleting node: 1048
Deleting node: 1049
Deleting node: 1050
Deleting node: 1051
Deleting node: 1052
Deleting node: 1053
Deleting node: 1054
Deleting node: 1055
Deleting node: 1056
Deleting node: 1057
Deleting node: 1058
Deleting node: 1059
Deleting node: 1060
Deleting node: 1061
Deleting node: 1062
Deleting node: 1063
Deleting node: 1064
Deleting node: 1065
Deleting node: 1066
Deleting node: 1067
Deleting node: 1068
Deleting node: 1069
Deleting node: 1070
Deleting node: 1071
Deleting node: 1073
Deleting node: 1074
Deleting node: 1075
Deleting node: 1076
Deleting node: 1077
Deleting node: 1078
Deleting node: 1079
Deleting node: 1080
Deleting node: 1081
Deleting node: 1082
Deleting node: 1083
Deleting node: 1084
Deleting node: 1085
Deleting node: 1086
Deleting node: 1087
Deleting node: 1088
Deleting node: 1089
Deleting node: 1090
Deleting node: 1091
Deleting node: 1092
Deleting node: 1093
Deleting node: 1094
Deleting node: 1095
Deleting node: 1096
Deleting node: 1097
Deleting node: 1098
Deleting node: 1100
Deleting node: 1101
Deleting node: 1102
Deleting node: 1103
Deleting node: 1104
Deleting node: 1107
Deleting node: 1108
Deleting node: 1109
Deleting node: 1110
Deleting node: 1111
Deleting node: 1112
Deleting node: 1113
Deleting node: 1114
Deleting node: 1115
Deleting node: 1116
Deleting node: 1117
Deleting node: 1118
Deleting node: 1119
Deleting node: 1120
Deleting node: 1121
Deleting node: 1122
Deleting node: 1123
Deleting node: 1124
Deleting node: 1125
Deleting node: 1126
Deleting node: 1127
Deleting node: 1128
Deleting node: 1129
Deleting node: 1130
Deleting node: 1131
Deleting node: 1132
Deleting node: 1133
Deleting node: 1134
Deleting node: 1135
Deleting node: 1136
Deleting node: 1137
Deleting node: 1138
Deleting node: 1139
Deleting node: 1140
Deleting node: 1141
Deleting node: 1142
Deleting node: 1143
Deleting node: 1144
Deleting node: 1145
Deleting node: 1146
Deleting node: 1147
Deleting node: 1148
Deleting node: 1149
Deleting node: 1150
Deleting node: 1151
Deleting node: 1152
Deleting node: 1153
Deleting node: 1154
Deleting node: 1155
Deleting node: 1156
Deleting node: 1157
Deleting node: 1158
Deleting node: 1159
Deleting node: 1160
Deleting node: 1161
Deleting node: 1162
Deleting node: 1163
Deleting node: 1164
Deleting node: 1165
Deleting node: 1166
Deleting node: 1167
Deleting node: 1168
Deleting node: 1169
Deleting node: 1170
Deleting node: 1171
Deleting node: 1172
Deleting node: 1173
Deleting node: 1174
Deleting node: 1175
Deleting node: 1176
Deleting node: 1177
Deleting node: 1178
Deleting node: 1179
Deleting node: 1180
Deleting node: 1181
Deleting node: 1182
Deleting node: 1183
Deleting node: 1184
Deleting node: 1185
Deleting node: 1186
Deleting node: 1187
Deleting node: 1188
Deleting node: 1189
Deleting node: 1190
Deleting node: 1191
Deleting node: 1192
Deleting node: 1193
Deleting node: 1194
Deleting node: 1195
Deleting node: 1196
Deleting node: 1197
Deleting node: 1198
Deleting node: 1199
Deleting node: 1200
Deleting node: 1201
Deleting node: 1202
Deleting node: 1203
Deleting node: 1204
Deleting node: 1205
Deleting node: 1206
Deleting node: 1207
Deleting node: 1208
Deleting node: 1209
Deleting node: 1210
Deleting node: 1211
Deleting node: 1212
Deleting node: 1213
Deleting node: 1214
Deleting node: 1215
Deleting node: 1216
Deleting node: 1217
Deleting node: 1218
Deleting node: 1219
Deleting node: 1220
Deleting node: 1221
Deleting node: 1222
Deleting node: 1223
Deleting node: 1224
Deleting node: 1225
Deleting node: 1226
Deleting node: 1227
Deleting node: 1228
Deleting node: 1229
Deleting node: 1230
Deleting node: 1231
Deleting node: 1232
Deleting node: 1233
Deleting node: 1234
Deleting node: 1235
Deleting node: 1236
Deleting node: 1237
Deleting node: 1238
Deleting node: 1239
Deleting node: 1240
Deleting node: 1241
Deleting node: 1242
Deleting node: 1243
Deleting node: 1244
Deleting node: 1245
Deleting node: 1246
Deleting node: 1247
Deleting node: 1248
Deleting node: 1249
Deleting node: 1250
Deleting node: 1251
Deleting node: 1252
Deleting node: 1253
Deleting node: 1254
Deleting node: 1255
Deleting node: 1256
Deleting node: 1257
Deleting node: 1258
Deleting node: 1259
Deleting node: 1260
Deleting node: 1261
Deleting node: 1262
Deleting node: 1263
Deleting node: 1264
Deleting node: 1265
Deleting node: 1266
Deleting node: 1267
Deleting node: 1268
Deleting node: 1269
Deleting node: 1270
Deleting node: 1271
Deleting node: 1272
Deleting node: 1273
Deleting node: 1274
Deleting node: 1275
Deleting node: 1276
Deleting node: 1277
Deleting node: 1278
Deleting node: 1279
Deleting node: 1280
Deleting node: 1281
Deleting node: 1282
Deleting node: 1283
Deleting node: 1284
Deleting node: 1285
Deleting node: 1286
Deleting node: 1287
Deleting node: 1288
Deleting node: 1289
Deleting node: 1290
Deleting node: 1291
Deleting node: 1292
Deleting node: 1296
Deleting node: 1297
Deleting node: 1298
Deleting node: 1299
Deleting node: 1300
Deleting node: 1301
Deleting node: 1302
Deleting node: 1303
Deleting node: 1304
Deleting node: 1305
Deleting node: 1306
Deleting node: 1307
Deleting node: 1308
Deleting node: 1309
Deleting node: 1310
Deleting node: 1311
Deleting node: 1312
Deleting node: 1313
Deleting node: 1314
Deleting node: 1315
Deleting node: 1316
Deleting node: 1317
Deleting node: 1318
Deleting node: 1319
Deleting node: 1320
Deleting node: 1321
Deleting node: 1322
Deleting node: 1323
Deleting node: 1324
Deleting node: 1325
Deleting node: 1327
Deleting node: 1328
Deleting node: 1329
Deleting node: 1330
Deleting node: 1331
Deleting node: 1332
Deleting node: 1333
Deleting node: 1334
Deleting node: 1335
Deleting node: 1336
Deleting node: 1337
Deleting node: 1338
Deleting node: 1339
Deleting node: 1340
Deleting node: 1341
Deleting node: 1342
Deleting node: 1343
Deleting node: 1344
Deleting node: 1345
Deleting node: 1346
Deleting node: 1347
Deleting node: 1348
Deleting node: 1349
Deleting node: 1350
Deleting node: 1351
Deleting node: 1352
Deleting node: 1353
Deleting node: 1354
Deleting node: 1355
Deleting node: 1356
Deleting node: 1357
Deleting node: 1358
Deleting node: 1359
Deleting node: 1360
Deleting node: 1361
Deleting node: 1362
Deleting node: 1363
Deleting node: 1364
Deleting node: 1365
Deleting node: 1366
Deleting node: 1367
Deleting node: 1368
Deleting node: 1369
Deleting node: 1370
Deleting node: 1371
Deleting node: 1372
Deleting node: 1373
Deleting node: 1374
Deleting node: 1375
Deleting node: 1376
Deleting node: 1377
Deleting node: 1378
Deleting node: 1379
Deleting node: 1380
Deleting node: 1381
Deleting node: 1382
Deleting node: 1383
Deleting node: 1384
Deleting node: 1385
Deleting node: 1386
Deleting node: 1387
Deleting node: 1388
Deleting node: 1389
Deleting node: 1390
Deleting node: 1391
Deleting node: 1392
Deleting node: 1393
Deleting node: 1394
Deleting node: 1395
Deleting node: 1396
Deleting node: 1397
Deleting node: 1398
Deleting node: 1399
Deleting node: 1400
Deleting node: 1401
Deleting node: 1402
Deleting node: 1403
Deleting node: 1404
Deleting node: 1405
Deleting node: 1406
Deleting node: 1407
Deleting node: 1408
Deleting node: 1410
Deleting node: 1411
Deleting node: 1412
Deleting node: 1413
Deleting node: 1414
Deleting node: 1415
Deleting node: 1416
Deleting node: 1417
Deleting node: 1418
Deleting node: 1420
Deleting node: 1421
Deleting node: 1422
Deleting node: 1423
Deleting node: 1424
Deleting node: 1425
Deleting node: 1426
Deleting node: 1427
Deleting node: 1428
Deleting node: 1429
Deleting node: 1430
Deleting node: 1431
Deleting node: 1432
Deleting node: 1433
Deleting node: 1434
Deleting node: 1435
Deleting node: 1436
Deleting node: 1437
Deleting node: 1438
Deleting node: 1439
Deleting node: 1440
Deleting node: 1441
Deleting node: 1442
Deleting node: 1443
Deleting node: 1444
Deleting node: 1445
Deleting node: 1446
Deleting node: 1447
Deleting node: 1448
Deleting node: 1449
Deleting node: 1450
Deleting node: 1451
Deleting node: 1452
Deleting node: 1453
Deleting node: 1454
Deleting node: 1455
Deleting node: 1456
Deleting node: 1457
Deleting node: 1458
Deleting node: 1459
Deleting node: 1460
Deleting node: 1461
Deleting node: 1462
Deleting node: 1463
Deleting node: 1464
Deleting node: 1465
Deleting node: 1466
Deleting node: 1467
Deleting node: 1468
Deleting node: 1469
Deleting node: 1470
Deleting node: 1471
Deleting node: 1472
Deleting node: 1473
Deleting node: 1474
Deleting node: 1475
Deleting node: 1476
Deleting node: 1477
Deleting node: 1478
Deleting node: 1479
Deleting node: 1480
Deleting node: 1481
Deleting node: 1482
Deleting node: 1483
Deleting node: 1484
Deleting node: 1485
Deleting node: 1486
Deleting node: 1487
Deleting node: 1488
Deleting node: 1489
Deleting node: 1490
Deleting node: 1491
Deleting node: 1492
Deleting node: 1493
Deleting node: 1495
Deleting node: 1496
Deleting node: 1497
Deleting node: 1498
Deleting node: 1499
Deleting node: 1500
Deleting node: 1501
Deleting node: 1502
Deleting node: 1503
Deleting node: 1504
Deleting node: 1505
Deleting node: 1506
Deleting node: 1507
Deleting node: 1508
Deleting node: 1509
Deleting node: 1510
Deleting node: 1511
Deleting node: 1512
Deleting node: 1513
Deleting node: 1514
Deleting node: 1515
Deleting node: 1516
Deleting node: 1517
Deleting node: 1518
Deleting node: 1519
Deleting node: 1520
Deleting node: 1521
Deleting node: 1522
Deleting node: 1523
Deleting node: 1524
Deleting node: 1525
Deleting node: 1526
Deleting node: 1527
Deleting node: 1528
Deleting node: 1529
Deleting node: 1530
Deleting node: 1531
Deleting node: 1532
Deleting node: 1533
Deleting node: 1534
Deleting node: 1535
Deleting node: 1536
Deleting node: 1537
Deleting node: 1538
Deleting node: 1539
Deleting node: 1540
Deleting node: 1541
Deleting node: 1542
Deleting node: 1543
Deleting node: 1544
Deleting node: 1545
Deleting node: 1546
Deleting node: 1547
Deleting node: 1548
Deleting node: 1549
Deleting node: 1550
Deleting node: 1551
Deleting node: 1552
Deleting node: 1553
Deleting node: 1554
Deleting node: 1555
Deleting node: 1557
Deleting node: 1558
Deleting node: 1559
Deleting node: 1560
Deleting node: 1561
Deleting node: 1562
Deleting node: 1563
Deleting node: 1564
Deleting node: 1565
Deleting node: 1566
Deleting node: 1567
Deleting node: 1568
Deleting node: 1569
Deleting node: 1570
Deleting node: 1571
Deleting node: 1572
Deleting node: 1573
Deleting node: 1574
Deleting node: 1575
Deleting node: 1576
Deleting node: 1577
Deleting node: 1578
Deleting node: 1579
Deleting node: 1580
Deleting node: 1581
Deleting node: 1582
Deleting node: 1583
Deleting node: 1584
Deleting node: 1585
Deleting node: 1586
Deleting node: 1587
Deleting node: 1588
Deleting node: 1589
Deleting node: 1590
Deleting node: 1591
Deleting node: 1592
Deleting node: 1593
Deleting node: 1594
Deleting node: 1595
Deleting node: 1596
Deleting node: 1597
Deleting node: 1598
Deleting node: 1599
Deleting node: 1600
Deleting node: 1601
Deleting node: 1602
Deleting node: 1604
Deleting node: 1605
Deleting node: 1606
Deleting node: 1607
Deleting node: 1608
Deleting node: 1609
Deleting node: 1610
Deleting node: 1611
Deleting node: 1612
Deleting node: 1613
Deleting node: 1614
Deleting node: 1615
Deleting node: 1616
Deleting node: 1617
Deleting node: 1618
Deleting node: 1619
Deleting node: 1620
Deleting node: 1621
Deleting node: 1622
Deleting node: 1623
Deleting node: 1624
Deleting node: 1625
Deleting node: 1626
Deleting node: 1627
Deleting node: 1628
Deleting node: 1629
Deleting node: 1630
Deleting node: 1631
Deleting node: 1632
Deleting node: 1633
Deleting node: 1634
Deleting node: 1635
Deleting node: 1636
Deleting node: 1637
Deleting node: 1638
Deleting node: 1639
Deleting node: 1640
Deleting node: 1641
Deleting node: 1642
Deleting node: 1643
Deleting node: 1644
Deleting node: 1645
Deleting node: 1646
Deleting node: 1647
Deleting node: 1648
Deleting node: 1649
Deleting node: 1650
Deleting node: 1651
Deleting node: 1652
Deleting node: 1653
Deleting node: 1654
Deleting node: 1655
Deleting node: 1656
Deleting node: 1657
Deleting node: 1658
Deleting node: 1659
Deleting node: 1660
Deleting node: 1661
Deleting node: 1662
Deleting node: 1663
Deleting node: 1664
Deleting node: 1665
Deleting node: 1666
Deleting node: 1667
Deleting node: 1668
Deleting node: 1669
Deleting node: 1670
Deleting node: 1671
Deleting node: 1672
Deleting node: 1673
Deleting node: 1674
Deleting node: 1675
Deleting node: 1676
Deleting node: 1677
Deleting node: 1678
Deleting node: 1679
Deleting node: 1680
Deleting node: 1681
Deleting node: 1682
Deleting node: 1683
Deleting node: 1684
Deleting node: 1685
Deleting node: 1686
Deleting node: 1687
Deleting node: 1688
Deleting node: 1689
Deleting node: 1690
Deleting node: 1691
Deleting node: 1692
Deleting node: 1693
Deleting node: 1694
Deleting node: 1695
Deleting node: 1696
Deleting node: 1697
Deleting node: 1698
Deleting node: 1699
Deleting node: 1700
Deleting node: 1701
Deleting node: 1702
Deleting node: 1703
Deleting node: 1704
Deleting node: 1705
Deleting node: 1706
Deleting node: 1707
Deleting node: 1713
Deleting node: 1717
Deleting node: 1718
Deleting node: 1719
Deleting node: 1720
Deleting node: 1721
Deleting node: 1722
Deleting node: 1723
Deleting node: 1724
Deleting node: 1725
Deleting node: 1726
Deleting node: 1727
Deleting node: 1728
Deleting node: 1729
Deleting node: 1730
Deleting node: 1731
Deleting node: 1732
Deleting node: 1733
Deleting node: 1734
Deleting node: 1735
Deleting node: 1736
Deleting node: 1737
Deleting node: 1738
Deleting node: 1739
Deleting node: 1740
Deleting node: 1741
Deleting node: 1742
Deleting node: 1743
Deleting node: 1744
Deleting node: 1745
Deleting node: 1746
Deleting node: 1747
Deleting node: 1748
Deleting node: 1749
Deleting node: 1754
Deleting node: 1755
Deleting node: 1756
Deleting node: 1757
Deleting node: 1758
Deleting node: 1767
Deleting node: 1768
Deleting node: 1769
Deleting node: 1770
Deleting node: 1771
Deleting node: 1772
Deleting node: 1773
Deleting node: 1774
Deleting node: 1775
Deleting node: 1777
Deleting node: 1778
Deleting node: 1779
Deleting node: 1780
Deleting node: 1781
Deleting node: 1782
Deleting node: 1783
Deleting node: 1784
Deleting node: 1785
Deleting node: 1786
total: 1594
